Classification of Antarctic Penguins
…
penguins_df <- penguins %>%
  filter(!is.na(sex)) %>%
  select(-island)

set.seed(123)
penguin_split <- initial_split(penguins_df, strata = sex)
penguin_train <- training(penguin_split)
penguin_test <- testing(penguin_split)

set.seed(123)
penguin_boot <- bootstraps(penguin_train)
penguin_boot

# Bootstrap sampling 
# A tibble: 25 × 2
   splits           id         
   <list>           <chr>      
 1 <split [249/93]> Bootstrap01
 2 <split [249/91]> Bootstrap02
 3 <split [249/90]> Bootstrap03
 4 <split [249/91]> Bootstrap04
 5 <split [249/85]> Bootstrap05
 6 <split [249/87]> Bootstrap06
 7 <split [249/94]> Bootstrap07
 8 <split [249/88]> Bootstrap08
 9 <split [249/95]> Bootstrap09
10 <split [249/89]> Bootstrap10
# ℹ 15 more rows
…
→ A | warning: glm.fit: fitted probabilities numerically 0 or 1 occurred

There were issues with some computations   A: x1

There were issues with some computations   A: x3

glm_rs

# Resampling results
# Bootstrap sampling 
# A tibble: 25 × 5
   splits           id          .metrics         .notes           .predictions
   <list>           <chr>       <list>           <list>           <list>      
 1 <split [249/93]> Bootstrap01 <tibble [3 × 4]> <tibble [0 × 3]> <tibble>    
 2 <split [249/91]> Bootstrap02 <tibble [3 × 4]> <tibble [0 × 3]> <tibble>    
 3 <split [249/90]> Bootstrap03 <tibble [3 × 4]> <tibble [0 × 3]> <tibble>    
 4 <split [249/91]> Bootstrap04 <tibble [3 × 4]> <tibble [0 × 3]> <tibble>    
 5 <split [249/85]> Bootstrap05 <tibble [3 × 4]> <tibble [1 × 3]> <tibble>    
 6 <split [249/87]> Bootstrap06 <tibble [3 × 4]> <tibble [0 × 3]> <tibble>    
 7 <split [249/94]> Bootstrap07 <tibble [3 × 4]> <tibble [0 × 3]> <tibble>    
 8 <split [249/88]> Bootstrap08 <tibble [3 × 4]> <tibble [1 × 3]> <tibble>    
 9 <split [249/95]> Bootstrap09 <tibble [3 × 4]> <tibble [0 × 3]> <tibble>    
10 <split [249/89]> Bootstrap10 <tibble [3 × 4]> <tibble [0 × 3]> <tibble>    
# ℹ 15 more rows
…
Random Forest

In [7]:

rf_rs <- penguin_wf %>%
  add_model(rf_spec) %>%
  fit_resamples(
    resamples = penguin_boot,
    control = control_resamples(save_pred = TRUE)
  )
rf_rs

# Resampling results
# Bootstrap sampling 
# A tibble: 25 × 5
   splits           id          .metrics         .notes           .predictions
   <list>           <chr>       <list>           <list>           <list>      
 1 <split [249/93]> Bootstrap01 <tibble [3 × 4]> <tibble [0 × 3]> <tibble>    
 2 <split [249/91]> Bootstrap02 <tibble [3 × 4]> <tibble [0 × 3]> <tibble>    
 3 <split [249/90]> Bootstrap03 <tibble [3 × 4]> <tibble [0 × 3]> <tibble>    
 4 <split [249/91]> Bootstrap04 <tibble [3 × 4]> <tibble [0 × 3]> <tibble>    
 5 <split [249/85]> Bootstrap05 <tibble [3 × 4]> <tibble [0 × 3]> <tibble>    
 6 <split [249/87]> Bootstrap06 <tibble [3 × 4]> <tibble [0 × 3]> <tibble>    
 7 <split [249/94]> Bootstrap07 <tibble [3 × 4]> <tibble [0 × 3]> <tibble>    
 8 <split [249/88]> Bootstrap08 <tibble [3 × 4]> <tibble [0 × 3]> <tibble>    
 9 <split [249/95]> Bootstrap09 <tibble [3 × 4]> <tibble [0 × 3]> <tibble>    
10 <split [249/89]> Bootstrap10 <tibble [3 × 4]> <tibble [0 × 3]> <tibble>    
# ℹ 15 more rows
…
